G04*
G04 #@! TF.GenerationSoftware,Altium Limited,CircuitStudio,1.5.1 (13)*
G04*
G04 Layer_Physical_Order=1*
G04 Layer_Color=39423*
%FSLAX24Y24*%
%MOIN*%
G70*
G01*
G75*
%ADD10R,0.0709X0.0394*%
%ADD11R,0.0512X0.0413*%
%ADD12R,0.0315X0.0217*%
%ADD13R,0.0551X0.0630*%
%ADD14R,0.0276X0.0354*%
%ADD15R,0.0354X0.0276*%
G04:AMPARAMS|DCode=16|XSize=35.4mil|YSize=27.6mil|CornerRadius=0mil|HoleSize=0mil|Usage=FLASHONLY|Rotation=135.000|XOffset=0mil|YOffset=0mil|HoleType=Round|Shape=Rectangle|*
%AMROTATEDRECTD16*
4,1,4,0.0223,-0.0028,0.0028,-0.0223,-0.0223,0.0028,-0.0028,0.0223,0.0223,-0.0028,0.0*
%
%ADD16ROTATEDRECTD16*%

%ADD17R,0.0591X0.0610*%
%ADD18R,0.0157X0.0532*%
%ADD19R,0.0236X0.0787*%
%ADD20R,0.0472X0.1492*%
%ADD21R,0.0571X0.0551*%
%ADD22R,0.0394X0.0236*%
%ADD23R,0.0374X0.0335*%
%ADD24R,0.0591X0.1811*%
%ADD25R,0.0480X0.0492*%
%ADD26R,0.0492X0.0480*%
%ADD27R,0.0315X0.0315*%
%ADD28R,0.0315X0.0354*%
%ADD29R,0.0433X0.0669*%
%ADD30R,0.0669X0.0433*%
%ADD31R,0.0354X0.0315*%
G04:AMPARAMS|DCode=32|XSize=35.4mil|YSize=31.5mil|CornerRadius=0mil|HoleSize=0mil|Usage=FLASHONLY|Rotation=135.000|XOffset=0mil|YOffset=0mil|HoleType=Round|Shape=Rectangle|*
%AMROTATEDRECTD32*
4,1,4,0.0237,-0.0014,0.0014,-0.0237,-0.0237,0.0014,-0.0014,0.0237,0.0237,-0.0014,0.0*
%
%ADD32ROTATEDRECTD32*%

G04:AMPARAMS|DCode=33|XSize=11.8mil|YSize=51.2mil|CornerRadius=0mil|HoleSize=0mil|Usage=FLASHONLY|Rotation=225.000|XOffset=0mil|YOffset=0mil|HoleType=Round|Shape=Round|*
%AMOVALD33*
21,1,0.0394,0.0118,0.0000,0.0000,315.0*
1,1,0.0118,-0.0139,0.0139*
1,1,0.0118,0.0139,-0.0139*
%
%ADD33OVALD33*%

G04:AMPARAMS|DCode=34|XSize=11.8mil|YSize=51.2mil|CornerRadius=0mil|HoleSize=0mil|Usage=FLASHONLY|Rotation=315.000|XOffset=0mil|YOffset=0mil|HoleType=Round|Shape=Round|*
%AMOVALD34*
21,1,0.0394,0.0118,0.0000,0.0000,45.0*
1,1,0.0118,-0.0139,-0.0139*
1,1,0.0118,0.0139,0.0139*
%
%ADD34OVALD34*%

%ADD35R,0.0276X0.1654*%
%ADD36C,0.0060*%
%ADD37C,0.1575*%
G04:AMPARAMS|DCode=38|XSize=75mil|YSize=58mil|CornerRadius=14.5mil|HoleSize=0mil|Usage=FLASHONLY|Rotation=0.000|XOffset=0mil|YOffset=0mil|HoleType=Round|Shape=RoundedRectangle|*
%AMROUNDEDRECTD38*
21,1,0.0750,0.0290,0,0,0.0*
21,1,0.0460,0.0580,0,0,0.0*
1,1,0.0290,0.0230,-0.0145*
1,1,0.0290,-0.0230,-0.0145*
1,1,0.0290,-0.0230,0.0145*
1,1,0.0290,0.0230,0.0145*
%
%ADD38ROUNDEDRECTD38*%
%ADD39O,0.0750X0.0580*%
%ADD40O,0.0800X0.0580*%
%ADD41C,0.0650*%
%ADD42C,0.0530*%
%ADD43C,0.0591*%
%ADD44R,0.0591X0.0591*%
%ADD45C,0.0300*%
%ADD46C,0.0500*%
D10*
X33600Y28192D02*
D03*
Y27208D02*
D03*
D11*
X31706Y29672D02*
D03*
Y30400D02*
D03*
X30800Y29672D02*
D03*
Y30400D02*
D03*
D12*
X32728Y20800D02*
D03*
Y21174D02*
D03*
Y20426D02*
D03*
X33672D02*
D03*
Y21174D02*
D03*
D13*
X33500Y32000D02*
D03*
X31728Y35150D02*
D03*
Y32000D02*
D03*
X33500Y35150D02*
D03*
X24400Y35200D02*
D03*
X26172Y32050D02*
D03*
Y35200D02*
D03*
X24400Y32050D02*
D03*
D14*
X33305Y24250D02*
D03*
X33895D02*
D03*
X33305Y25900D02*
D03*
X33895D02*
D03*
X32095Y19450D02*
D03*
X31505D02*
D03*
X28005Y34500D02*
D03*
X28595D02*
D03*
X24645Y30200D02*
D03*
X24055D02*
D03*
X24645Y31200D02*
D03*
X24055D02*
D03*
D15*
X32000Y36905D02*
D03*
Y37495D02*
D03*
X23100Y20195D02*
D03*
Y19605D02*
D03*
X33700Y36905D02*
D03*
Y37495D02*
D03*
X27900Y19095D02*
D03*
Y18505D02*
D03*
X27400Y19095D02*
D03*
Y18505D02*
D03*
X30850Y32155D02*
D03*
Y32745D02*
D03*
X26500Y30605D02*
D03*
Y31195D02*
D03*
X31229Y37495D02*
D03*
Y36905D02*
D03*
X30586Y37495D02*
D03*
Y36905D02*
D03*
X29943Y37495D02*
D03*
Y36905D02*
D03*
X27500Y37295D02*
D03*
Y36705D02*
D03*
X29300Y37495D02*
D03*
Y36905D02*
D03*
X27200Y30295D02*
D03*
Y29705D02*
D03*
D16*
X24809Y23309D02*
D03*
X24391Y22891D02*
D03*
X25709Y22409D02*
D03*
X25291Y21991D02*
D03*
X24409Y23709D02*
D03*
X23991Y23291D02*
D03*
X25309Y22809D02*
D03*
X24891Y22391D02*
D03*
D17*
X31906Y41300D02*
D03*
X32694D02*
D03*
D18*
X31788Y40237D02*
D03*
X32044D02*
D03*
X32300D02*
D03*
X32556D02*
D03*
X32812D02*
D03*
D19*
X26817Y39722D02*
D03*
X27250D02*
D03*
X27683D02*
D03*
X28116D02*
D03*
X26383D02*
D03*
X25950D02*
D03*
X25517D02*
D03*
X25084D02*
D03*
D20*
X28568Y40698D02*
D03*
D21*
X24444Y40401D02*
D03*
D22*
X24356Y40893D02*
D03*
D23*
X24720Y41277D02*
D03*
D24*
X28665Y20900D02*
D03*
X26735D02*
D03*
D25*
X29900Y33729D02*
D03*
Y34871D02*
D03*
D26*
X25971Y20400D02*
D03*
X24829D02*
D03*
X25971Y19600D02*
D03*
X24829D02*
D03*
D27*
X31200Y39395D02*
D03*
Y38805D02*
D03*
X30537Y39395D02*
D03*
Y38805D02*
D03*
X29914D02*
D03*
Y39395D02*
D03*
X29271Y38805D02*
D03*
Y39395D02*
D03*
D28*
X33324Y25300D02*
D03*
X33876D02*
D03*
X33276Y22900D02*
D03*
X32724D02*
D03*
X33324Y26500D02*
D03*
X33876Y26500D02*
D03*
X33324Y28900D02*
D03*
X33876D02*
D03*
X25476Y26700D02*
D03*
X24924D02*
D03*
D29*
X32469Y22100D02*
D03*
X33531D02*
D03*
D30*
X32000Y21231D02*
D03*
Y20169D02*
D03*
D31*
X31300Y20424D02*
D03*
Y20976D02*
D03*
X28400Y30276D02*
D03*
Y29724D02*
D03*
X27800Y30276D02*
D03*
Y29724D02*
D03*
X32500Y30276D02*
D03*
Y29724D02*
D03*
X30000Y29724D02*
D03*
Y30276D02*
D03*
X25950Y30624D02*
D03*
Y31176D02*
D03*
X26900Y37276D02*
D03*
Y36724D02*
D03*
D32*
X26095Y21995D02*
D03*
X25705Y21605D02*
D03*
D33*
X31617Y25171D02*
D03*
X31478Y25032D02*
D03*
X31338Y24893D02*
D03*
X31199Y24753D02*
D03*
X31060Y24614D02*
D03*
X30921Y24475D02*
D03*
X30782Y24336D02*
D03*
X30642Y24197D02*
D03*
X30503Y24058D02*
D03*
X30364Y23918D02*
D03*
X30225Y23779D02*
D03*
X30086Y23640D02*
D03*
X29947Y23501D02*
D03*
X29807Y23362D02*
D03*
X29668Y23222D02*
D03*
X29529Y23083D02*
D03*
X26383Y26229D02*
D03*
X26522Y26368D02*
D03*
X26662Y26507D02*
D03*
X26801Y26647D02*
D03*
X26940Y26786D02*
D03*
X27079Y26925D02*
D03*
X27218Y27064D02*
D03*
X27358Y27203D02*
D03*
X27497Y27342D02*
D03*
X27636Y27482D02*
D03*
X27775Y27621D02*
D03*
X27914Y27760D02*
D03*
X28053Y27899D02*
D03*
X28193Y28038D02*
D03*
X28332Y28178D02*
D03*
X28471Y28317D02*
D03*
D34*
Y23083D02*
D03*
X28332Y23222D02*
D03*
X28193Y23362D02*
D03*
X28053Y23501D02*
D03*
X27914Y23640D02*
D03*
X27775Y23779D02*
D03*
X27636Y23918D02*
D03*
X27497Y24058D02*
D03*
X27358Y24197D02*
D03*
X27218Y24336D02*
D03*
X27079Y24475D02*
D03*
X26940Y24614D02*
D03*
X26801Y24753D02*
D03*
X26662Y24893D02*
D03*
X26522Y25032D02*
D03*
X26383Y25171D02*
D03*
X29529Y28317D02*
D03*
X29668Y28178D02*
D03*
X29807Y28038D02*
D03*
X29947Y27899D02*
D03*
X30086Y27760D02*
D03*
X30225Y27621D02*
D03*
X30364Y27482D02*
D03*
X30503Y27342D02*
D03*
X30642Y27203D02*
D03*
X30782Y27064D02*
D03*
X30921Y26925D02*
D03*
X31060Y26786D02*
D03*
X31199Y26647D02*
D03*
X31338Y26507D02*
D03*
X31478Y26368D02*
D03*
X31617Y26229D02*
D03*
D35*
X28960Y16278D02*
D03*
X28566D02*
D03*
X28172D02*
D03*
X27779D02*
D03*
X27385D02*
D03*
X26991D02*
D03*
X26598D02*
D03*
X26204D02*
D03*
X25810D02*
D03*
X25417D02*
D03*
X25023D02*
D03*
X30141D02*
D03*
X30535D02*
D03*
X30928D02*
D03*
X31322D02*
D03*
X31716D02*
D03*
X32109D02*
D03*
X32503D02*
D03*
D36*
X24055Y30815D02*
X24140Y30730D01*
X24055Y30815D02*
Y31200D01*
X33750Y36330D02*
Y36835D01*
X33760Y36845D01*
X30512Y33273D02*
X31189Y33950D01*
X30128Y33273D02*
X30512D01*
X29285Y32430D02*
X30128Y33273D01*
X29285Y32340D02*
Y32430D01*
X29060Y32115D02*
X29285Y32340D01*
X28740Y32115D02*
X29060D01*
X30345Y32400D02*
X31047D01*
X29940Y31995D02*
X30345Y32400D01*
X30229Y32115D02*
X30810D01*
X29989Y31875D02*
X30229Y32115D01*
X28691Y31995D02*
X29940D01*
X27065Y31875D02*
X29989D01*
X30934Y34150D02*
X31050D01*
X29793Y33393D02*
X30177D01*
X30934Y34150D01*
X28900Y32500D02*
X29793Y33393D01*
X27500Y36361D02*
Y36705D01*
Y36300D02*
Y36361D01*
Y36300D02*
X27750Y36050D01*
X27970D01*
X26999Y35860D02*
X27500Y36361D01*
X32044Y39696D02*
Y40237D01*
X31898Y39549D02*
X32044Y39696D01*
X31898Y39351D02*
Y39549D01*
Y39351D02*
X32000Y39249D01*
Y37495D02*
Y39249D01*
X31650Y37403D02*
X31903Y37150D01*
X28910Y35940D02*
X34020D01*
X34400Y35560D01*
X32510Y36060D02*
X33200Y36750D01*
X30788Y36060D02*
X32510D01*
X24040Y24360D02*
X25560D01*
X26371Y25171D01*
X25690Y24200D02*
X26522Y25032D01*
X23200Y24200D02*
X25690D01*
X22700Y21491D02*
Y23700D01*
Y21491D02*
X23741Y20450D01*
X24096D01*
X24646Y21000D01*
X29409Y24990D02*
Y25459D01*
X29850Y25900D01*
X30549Y25690D02*
X30690Y25549D01*
X30351Y25690D02*
X30549D01*
X30210Y25549D02*
X30351Y25690D01*
X30210Y25410D02*
Y25549D01*
X29750Y24950D02*
X30210Y25410D01*
X27994Y23998D02*
Y24294D01*
X28350Y24650D01*
X27775Y23779D02*
X27994Y23998D01*
X27874Y24514D02*
X28251Y24890D01*
X27874Y24157D02*
Y24514D01*
X28251Y24890D02*
X28449D01*
X27890Y24740D02*
X28600Y25450D01*
X27890Y24729D02*
Y24740D01*
X28120Y25521D02*
Y26220D01*
X27079Y24480D02*
X28120Y25521D01*
X28240Y25360D02*
Y25941D01*
X27631Y24751D02*
X28240Y25360D01*
X27631Y24749D02*
Y24751D01*
X28240Y25941D02*
X29149Y26850D01*
X27218Y24336D02*
X27631Y24749D01*
X29149Y26850D02*
X29200D01*
X28120Y26220D02*
X28320Y26420D01*
X27880Y25554D02*
Y25880D01*
X26940Y24614D02*
X27880Y25554D01*
X29724Y27398D02*
X30086Y27760D01*
X29700Y27374D02*
X29724Y27398D01*
X29700Y27374D02*
X29724Y27351D01*
Y27398D01*
Y27322D02*
Y27351D01*
X30318Y26600D02*
X30782Y27064D01*
X29900Y26600D02*
X30318D01*
X30364Y27482D02*
X31277Y28394D01*
X31406D01*
X30440Y28950D02*
Y29141D01*
X29668Y28178D02*
X30440Y28950D01*
X31434Y29000D02*
X32350D01*
X31243Y29191D02*
X31434Y29000D01*
X30660Y29191D02*
X31243D01*
X30560Y29091D02*
X30660Y29191D01*
X30560Y28809D02*
Y29091D01*
X29807Y28057D02*
X30560Y28809D01*
X25511Y29210D02*
X26051Y28670D01*
X24380Y29230D02*
X24381D01*
X25181Y28430D01*
X24330Y29110D02*
X24331D01*
X25131Y28310D01*
X24281Y28990D02*
X25131Y28140D01*
X24281Y28990D02*
X24281D01*
X24071Y29200D02*
X24281Y28990D01*
X23200Y29200D02*
X24071D01*
X23590Y28690D02*
X24290Y27990D01*
X23590Y28690D02*
Y28700D01*
X25131Y28310D02*
X26808D01*
X25181Y28430D02*
X26900D01*
X25341Y29090D02*
X25881Y28550D01*
X26808Y28310D02*
X27636Y27482D01*
X26900Y28430D02*
X27410Y27920D01*
X27476D01*
X27775Y27621D01*
X27459Y28040D02*
X27634D01*
X26949Y28550D02*
X27459Y28040D01*
X27634D02*
X27914Y27760D01*
X25881Y28550D02*
X26949D01*
X24230Y30467D02*
X24297Y30399D01*
X23555Y30467D02*
X24230D01*
X27892Y28061D02*
X28053Y27899D01*
X27892Y28061D02*
X27892D01*
X27793Y28160D02*
X27892Y28061D01*
X26051Y28670D02*
X27141D01*
X27651Y28160D02*
X27793D01*
X27141Y28670D02*
X27651Y28160D01*
X27998Y28790D02*
X28471Y28317D01*
X26100Y28790D02*
X27998D01*
X25640Y29250D02*
X26100Y28790D01*
X25640Y29250D02*
Y29763D01*
X25760Y29300D02*
X26100Y28960D01*
X27989Y29170D02*
X28430D01*
X27779Y28960D02*
X27989Y29170D01*
X26100Y28960D02*
X27779D01*
X25760Y29300D02*
Y30300D01*
X21970Y33680D02*
X22581D01*
X22710Y33550D01*
X22850D01*
X23200Y33200D01*
X24034Y34666D02*
X24500Y34200D01*
X36380Y30680D02*
X36785Y31085D01*
X36665Y30710D02*
X36905Y30950D01*
X36665Y29965D02*
Y30710D01*
X33199Y31100D02*
X33831D01*
X34161Y30770D01*
X35392D01*
X33139Y31380D02*
X33890D01*
X34490Y31110D02*
X34735Y31355D01*
Y31357D01*
X34958Y31580D01*
X35490D01*
X36110Y32200D01*
X36200D01*
X34908Y33700D02*
X35700D01*
X34658Y33950D02*
X34908Y33700D01*
X34708Y34070D02*
X34958Y33820D01*
X36230D01*
X31611Y34070D02*
X34708D01*
X31661Y34190D02*
X35190D01*
X35200Y34200D01*
X33690Y30760D02*
X34590Y29860D01*
Y27991D02*
Y29860D01*
Y27991D02*
X34971Y27610D01*
X35482D01*
X34710Y28040D02*
Y29332D01*
Y28040D02*
X35000Y27750D01*
X35482Y27610D02*
X35735Y27357D01*
Y27043D02*
Y27357D01*
Y27043D02*
X35958Y26820D01*
X36202D01*
X36785Y26237D01*
Y24650D02*
Y26237D01*
X31620Y18130D02*
X32610Y19120D01*
X32759D01*
X32641Y18900D02*
X32726D01*
X32140Y18399D02*
X32641Y18900D01*
X32140Y18240D02*
Y18399D01*
X31260Y18941D02*
Y19961D01*
X30700Y18381D02*
X31260Y18941D01*
X30700Y17861D02*
Y18381D01*
Y17861D02*
X30886Y17675D01*
Y17620D02*
Y17675D01*
X30270Y18689D02*
X31140Y19559D01*
X30270Y18581D02*
Y18689D01*
X30480Y16333D02*
Y18580D01*
X30141Y16278D02*
Y18452D01*
X30270Y18581D01*
X29395Y18555D02*
Y19095D01*
X30180Y19880D01*
X30321Y20220D02*
X30771Y19770D01*
X30800D01*
X28759Y22862D02*
Y23284D01*
X27636Y23918D02*
X27874Y24157D01*
X28700Y24080D02*
Y24639D01*
X28449Y24890D02*
X28700Y24639D01*
X27218Y24336D02*
Y24339D01*
X27079Y24475D02*
Y24480D01*
X25849Y24080D02*
X26662Y24893D01*
X24402Y24080D02*
X25849D01*
X23522Y23200D02*
X24402Y24080D01*
X23200Y23200D02*
X23522D01*
X26522Y25032D02*
X26980Y25489D01*
X23200Y25200D02*
X24040Y24360D01*
X25149Y23709D02*
X25849Y23009D01*
X24409Y23709D02*
X25149D01*
X25837Y23790D02*
X26801Y24753D01*
X25450Y23790D02*
X25837D01*
X24809Y23309D02*
X25351D01*
X25709Y22951D01*
Y22409D02*
Y22951D01*
X24891Y22809D02*
X25309D01*
X24409Y23291D02*
X24891Y22809D01*
X25709Y22409D02*
X25742Y22441D01*
X26118Y22322D02*
X26190Y22250D01*
X26044Y22322D02*
X26118D01*
X25696Y21974D02*
X26044Y22322D01*
X28566Y17487D02*
X28840Y17761D01*
X28566Y16278D02*
Y17487D01*
X28840Y17761D02*
Y18000D01*
X28114Y18277D02*
X28278Y18440D01*
X28690D01*
X27385Y17366D02*
X27700Y17681D01*
X31329Y22040D02*
X31549Y21820D01*
X31279Y21920D02*
X31499Y21700D01*
X31230Y21800D02*
X31450Y21580D01*
X31990Y21222D02*
X32000Y21231D01*
X31530Y21222D02*
X31990D01*
X33589Y20736D02*
X33967D01*
X33425Y20572D02*
X33589Y20736D01*
X33425Y20250D02*
Y20572D01*
X33109Y19933D02*
X33425Y20250D01*
X32503Y18183D02*
X32790Y18470D01*
Y18540D01*
X32503Y16278D02*
Y18183D01*
X32109Y16278D02*
Y17469D01*
X32230Y17590D01*
X32930Y18780D02*
X33910Y19760D01*
X31716Y17566D02*
X32430Y18280D01*
X32691Y18780D02*
X32930D01*
X32430Y18519D02*
X32691Y18780D01*
X32430Y18280D02*
Y18519D01*
X31716Y16278D02*
Y17566D01*
X32759Y19120D02*
X33920Y20280D01*
X34811Y21250D02*
X36420D01*
X33920Y20359D02*
X34811Y21250D01*
X33920Y20280D02*
Y20359D01*
X32726Y18900D02*
X33670Y19844D01*
X31322Y17422D02*
X32140Y18240D01*
X34361Y20550D02*
X34450D01*
X33670Y19859D02*
X34361Y20550D01*
X33670Y19844D02*
Y19859D01*
X32975Y20291D02*
X33539Y20856D01*
X32975Y20280D02*
Y20291D01*
X32922Y20228D02*
X32975Y20280D01*
X32738Y20228D02*
X32922D01*
X31322Y16278D02*
Y17422D01*
X26670Y23950D02*
X27115D01*
X26610Y24010D02*
X26670Y23950D01*
X24859Y21000D02*
X25000Y21141D01*
X24646Y21000D02*
X24859D01*
X24760Y21240D02*
Y21460D01*
X25291Y21991D01*
X23991Y22129D02*
X24070Y22050D01*
X23991Y22129D02*
Y23291D01*
X23897Y21510D02*
X24330Y21943D01*
X23180Y21510D02*
X23897D01*
X24330Y21943D02*
Y22830D01*
X22920Y20650D02*
X23100Y20470D01*
Y20195D02*
Y20470D01*
X26204Y16278D02*
Y18264D01*
X26320Y18380D01*
X27550Y19690D02*
Y20008D01*
X29241Y22418D02*
Y23284D01*
Y22418D02*
X30000Y21659D01*
X29920Y22220D02*
Y22692D01*
X29529Y23083D02*
X29920Y22692D01*
X34050Y25900D02*
X34570Y25380D01*
Y24720D02*
Y25380D01*
X33876Y28900D02*
X34090D01*
X34340Y28650D01*
X32656Y27606D02*
X32740Y27690D01*
X34240D01*
X26262Y26350D02*
X26383Y26229D01*
X25950Y26350D02*
X26262D01*
X24770Y24600D02*
X25600Y25430D01*
X25750D01*
X23800Y25580D02*
X24330Y26110D01*
X24400D01*
X24829Y20400D02*
X25471Y19759D01*
X25380Y16314D02*
Y18250D01*
Y16314D02*
X25417Y16278D01*
X26226Y27500D02*
X26940Y26786D01*
X25631Y27500D02*
X26226D01*
X26825Y27179D02*
X27050Y26954D01*
X26720Y27179D02*
X26825D01*
X26099Y27800D02*
X26720Y27179D01*
X26730Y27552D02*
X27218Y27064D01*
X26763Y27519D02*
X26861D01*
X27358Y24197D02*
X27890Y24729D01*
X29000Y22910D02*
Y23780D01*
X28700Y24080D02*
X29000Y23780D01*
X31347Y26507D02*
X32039Y27199D01*
Y27208D01*
X31338Y26507D02*
X31347D01*
X36230Y33820D02*
X36785Y33265D01*
X36200Y32822D02*
Y33200D01*
X36665Y32043D02*
Y32357D01*
X36200Y32822D02*
X36665Y32357D01*
X35735Y33043D02*
X36200Y32578D01*
X35450Y33580D02*
X35735Y33295D01*
Y33043D02*
Y33295D01*
X36200Y32200D02*
Y32578D01*
X34730Y31522D02*
Y31730D01*
X35200Y32200D01*
X34610Y32610D02*
X35200Y33200D01*
X33800Y31700D02*
X34240D01*
X33500Y32000D02*
X33800Y31700D01*
X28405Y32450D02*
X28740Y32115D01*
X28405Y32450D02*
Y32882D01*
X28005Y33453D02*
Y34500D01*
Y33453D02*
X28900Y32557D01*
X21600Y38100D02*
X21830Y38330D01*
X23680D01*
X24150Y38800D01*
X21850Y39290D02*
X21900Y39340D01*
X23320D01*
X23900Y39920D01*
Y40910D02*
X24267Y41277D01*
X23900Y39920D02*
Y40910D01*
X24267Y41277D02*
X24720D01*
X30941Y20110D02*
X31140Y19911D01*
X30609Y20110D02*
X30941D01*
X30991Y20230D02*
X31260Y19961D01*
X30659Y20230D02*
X30991D01*
X30390Y20499D02*
X30659Y20230D01*
X30800Y20570D02*
X31154D01*
X31140Y19559D02*
Y19911D01*
X31154Y20570D02*
X31300Y20424D01*
X27930Y20137D02*
Y20600D01*
X25971Y19600D02*
X26850D01*
X25895Y19095D02*
X27400D01*
X24297Y30936D02*
Y31399D01*
Y30936D02*
X24417Y30816D01*
Y30986D02*
X25640Y29763D01*
X24417Y30986D02*
Y31449D01*
X28840Y18000D02*
X29395Y18555D01*
X33150Y39710D02*
X33750Y39110D01*
X33700Y37495D02*
Y39110D01*
X32812Y39837D02*
Y40237D01*
Y39837D02*
X32939Y39710D01*
X33150D01*
X23442Y31580D02*
X23497Y31525D01*
X24172D01*
X22665Y32085D02*
X23170Y31580D01*
X23442D01*
X21735Y22043D02*
X22018Y21760D01*
X21735Y22357D02*
X22200Y22822D01*
X21735Y22043D02*
Y22357D01*
X22200Y22822D02*
Y23200D01*
X35900Y31820D02*
X36442D01*
X36665Y32043D01*
X35665Y31585D02*
X35900Y31820D01*
X35665Y31043D02*
Y31585D01*
X35750Y27750D02*
X36200Y28200D01*
X35000Y27750D02*
X35750D01*
X34560Y27084D02*
X35064Y26580D01*
X34118Y28192D02*
X34560Y27750D01*
X33600Y28192D02*
X34118D01*
X36665Y25043D02*
Y25357D01*
X36015Y25580D02*
X36442D01*
X35665Y25930D02*
X36015Y25580D01*
X35064Y26580D02*
X35442D01*
X35665Y25930D02*
Y26042D01*
X35665Y26043D01*
Y26357D01*
X35442Y26580D02*
X35665Y26357D01*
X36442Y25580D02*
X36665Y25357D01*
X32237Y23066D02*
Y23343D01*
X32570Y23208D02*
Y23660D01*
X35665Y23043D02*
Y24530D01*
X33130Y23983D02*
X33686D01*
X33899Y23770D01*
X34735Y25043D02*
X34910Y24868D01*
Y24532D02*
Y24868D01*
X34735Y24357D02*
X34910Y24532D01*
X32110Y23469D02*
X32237Y23343D01*
X34179Y23320D02*
X34390D01*
X33637Y23863D02*
X34179Y23320D01*
X33080Y23863D02*
X33637D01*
X33028Y23743D02*
X33568D01*
X34050Y23261D01*
Y23179D02*
Y23261D01*
X34531Y22980D02*
X34730Y23179D01*
Y23461D01*
X34421Y23770D02*
X34730Y23461D01*
X32230Y23519D02*
X32442Y23307D01*
Y23249D02*
Y23307D01*
X33899Y23770D02*
X34421D01*
X34249Y22980D02*
X34531D01*
X32429Y24000D02*
X32771D01*
X32379Y24120D02*
X32823D01*
X34050Y23179D02*
X34249Y22980D01*
X33876Y25300D02*
X34270D01*
X32110Y23851D02*
X32379Y24120D01*
X32110Y23469D02*
Y23851D01*
X32230Y23519D02*
Y23801D01*
X32429Y24000D01*
X33490Y23340D02*
Y23390D01*
X35442Y22820D02*
X35665Y23043D01*
X35426Y22820D02*
X35442D01*
X35200Y22594D02*
X35426Y22820D01*
X34735Y23665D02*
Y24357D01*
X26150Y29300D02*
X26500Y29650D01*
X35700Y33700D02*
X36200Y33200D01*
X36785Y31085D02*
Y33265D01*
X32440Y31740D02*
X34280Y33580D01*
X35450D01*
X35392Y30770D02*
X35665Y31043D01*
X34610Y31572D02*
Y32610D01*
X34495Y31457D02*
X34610Y31572D01*
X34495Y31454D02*
Y31457D01*
X34391Y31350D02*
X34495Y31454D01*
X34615Y31407D02*
X34730Y31522D01*
X34615Y31404D02*
Y31407D01*
X34441Y31230D02*
X34615Y31404D01*
X36058Y30680D02*
X36380D01*
X35735Y30357D02*
X36058Y30680D01*
X35735Y30035D02*
Y30357D01*
X35280Y29580D02*
X35735Y30035D01*
X34958Y29580D02*
X35280D01*
X34710Y29332D02*
X34958Y29580D01*
X36500Y29800D02*
X36665Y29965D01*
X35800Y29800D02*
X36500D01*
X35200Y29200D02*
X35800Y29800D01*
X36048Y29670D02*
X36670D01*
X35735Y29357D02*
X36048Y29670D01*
X35735Y28735D02*
Y29357D01*
X36670Y29670D02*
X37025Y30025D01*
X36442Y24820D02*
X36665Y25043D01*
X35955Y24820D02*
X36442D01*
X36665Y21835D02*
Y24530D01*
X36785Y24650D01*
X34615Y26009D02*
Y26391D01*
X34740Y26516D01*
Y26641D01*
X33956Y26580D02*
X34320D01*
X35665Y24530D02*
X35955Y24820D01*
X35200Y22200D02*
Y22594D01*
X36400Y21570D02*
X36665Y21835D01*
X31650Y22960D02*
X31890Y23200D01*
X31491Y22160D02*
X31700D01*
X31549Y21820D02*
X31841D01*
X32040Y22019D01*
X31891Y21700D02*
X32162Y21971D01*
X31499Y21700D02*
X31891D01*
X31948Y21580D02*
X32469Y22100D01*
X31450Y21580D02*
X31948D01*
X35442Y21820D02*
X35665Y22043D01*
X34700Y21820D02*
X35442D01*
X33920Y21040D02*
X34700Y21820D01*
X34619Y21570D02*
X36400D01*
X34040Y20990D02*
X34619Y21570D01*
X36450Y21450D02*
X36905Y21905D01*
X34669Y21450D02*
X36450D01*
X34160Y20941D02*
X34669Y21450D01*
X36420Y21250D02*
X37145Y21975D01*
X36905Y21905D02*
Y27495D01*
X37145Y21975D02*
Y37445D01*
X22200Y26200D02*
X22700Y25700D01*
X24259Y26450D02*
X24541D01*
X23509Y25700D02*
X24259Y26450D01*
X22198Y25580D02*
X23800D01*
X21735Y26043D02*
X22198Y25580D01*
X22200Y36200D02*
X22820Y35580D01*
X23914Y34616D02*
X24720Y33810D01*
X22820Y35580D02*
X23630D01*
X23914Y35296D01*
Y34616D02*
Y35296D01*
X23200Y36200D02*
X24034Y35366D01*
Y34666D02*
Y35366D01*
X22200Y35200D02*
X22735Y34665D01*
Y33865D02*
X22780Y33820D01*
X22735Y33865D02*
Y34665D01*
X21735Y29935D02*
Y33445D01*
X21970Y33680D01*
X22200Y34230D02*
X22760Y33670D01*
X23665Y32068D02*
Y33357D01*
X22760Y33670D02*
X23352D01*
X23665Y33357D01*
X24885Y32455D02*
X25114D01*
X23520Y33820D02*
X24885Y32455D01*
X22780Y33820D02*
X23520D01*
X24965Y32575D02*
X26365D01*
X23340Y34200D02*
X24965Y32575D01*
X23200Y34200D02*
X23340D01*
X22657Y32349D02*
X22665Y32341D01*
X22200Y32822D02*
X22665Y32357D01*
X22200Y32822D02*
Y33200D01*
X22735Y31059D02*
X22743Y31051D01*
X22735Y31043D02*
X22958Y30820D01*
X23202D01*
X23555Y30467D01*
X22735Y31059D02*
Y31665D01*
X23820Y29620D02*
X24330Y29110D01*
X22780Y29620D02*
X23820D01*
X22200Y30200D02*
X22780Y29620D01*
X23840Y29770D02*
X24380Y29230D01*
X22800Y29770D02*
X23840D01*
X22735Y29835D02*
X22800Y29770D01*
X22735Y29835D02*
Y30665D01*
X21960Y29710D02*
X22312D01*
X21735Y29935D02*
X21960Y29710D01*
X22312D02*
X22665Y29357D01*
Y29341D02*
X22735Y29271D01*
X22665Y29341D02*
Y29357D01*
X22735Y28885D02*
Y29271D01*
X22920Y28700D02*
X23590D01*
X22735Y28885D02*
X22920Y28700D01*
X22200Y29020D02*
X22690Y28530D01*
X22200Y29020D02*
Y29200D01*
X22100Y19840D02*
X23629D01*
X23668Y20140D02*
X23810D01*
X23160Y20648D02*
X23668Y20140D01*
X24160Y25209D02*
Y25541D01*
X24359Y25740D01*
X24511D01*
X24740Y25969D01*
X24500Y25400D02*
Y25470D01*
X24359Y25010D02*
X24641D01*
X24160Y25209D02*
X24359Y25010D01*
X24541Y26450D02*
X24740Y26251D01*
X24591Y26570D02*
X24910Y26251D01*
X24400Y26910D02*
X24714D01*
X24751Y27040D02*
X25141D01*
X24541Y27250D02*
X24751Y27040D01*
X24250Y27250D02*
X24541D01*
X23200Y26200D02*
X24250Y27250D01*
X24801Y27160D02*
X25091D01*
X24591Y27370D02*
X24801Y27160D01*
X23370Y27370D02*
X24591D01*
X24950Y27500D02*
X24990Y27460D01*
X25091Y27160D02*
X25241Y27310D01*
X25141Y27040D02*
X25291Y27190D01*
X25241Y27310D02*
X26137D01*
X25450Y27800D02*
X26099D01*
X25591Y27460D02*
X25631Y27500D01*
X25131Y28140D02*
X26410D01*
X24740Y25969D02*
Y26251D01*
X25200Y26350D02*
X25950D01*
X25476Y26700D02*
X26190D01*
X25050Y25850D02*
Y26200D01*
X24840Y25640D02*
X25050Y25850D01*
X24840Y25209D02*
Y25640D01*
X24641Y25010D02*
X24840Y25209D01*
X24910Y25880D02*
Y26251D01*
X25979Y27190D02*
X26662Y26507D01*
X25291Y27190D02*
X25979D01*
X26137Y27310D02*
X26801Y26647D01*
X24990Y27460D02*
X25591D01*
X26500Y27950D02*
X26550Y28000D01*
X24500Y25470D02*
X24900Y25870D01*
X27119Y23769D02*
X27487D01*
X28360Y23683D02*
Y24090D01*
Y23683D02*
X28759Y23284D01*
X29241Y23284D02*
X29340Y23383D01*
X29566Y24160D02*
X30086Y23640D01*
X29260Y24160D02*
X29566D01*
X29407Y24040D02*
X29947Y23501D01*
X29211Y24040D02*
X29407D01*
X29240Y24180D02*
X29260Y24160D01*
X29240Y24180D02*
X29240D01*
X29061Y24360D02*
X29240Y24180D01*
X29401Y24501D02*
X30613D01*
X29061Y24360D02*
Y24641D01*
X29409Y24990D01*
X28941Y24310D02*
X29191Y24060D01*
X28941Y24310D02*
Y24691D01*
X29150Y24901D01*
Y26100D01*
X28940Y24860D02*
Y25829D01*
X28821Y24741D02*
X28940Y24860D01*
X28821Y24260D02*
Y24741D01*
Y24260D02*
X29141Y23940D01*
X29340Y23383D02*
Y23741D01*
X29141Y23940D02*
X29340Y23741D01*
X29141Y23940D02*
X29141D01*
X29191Y24060D02*
X29211Y24040D01*
X29191Y24060D02*
X29191D01*
X30550Y24846D02*
Y24850D01*
X30481Y25400D02*
X30891Y24990D01*
X23810Y20140D02*
X24270Y19680D01*
X27955Y18560D02*
X28641D01*
X28327Y18320D02*
X28740D01*
X28377Y18200D02*
X28790D01*
X28214Y18037D02*
X28377Y18200D01*
X27975Y19020D02*
X28450D01*
X27930Y20137D02*
X28581Y19485D01*
X28715D01*
X28915Y19286D01*
X27900Y19095D02*
X27975Y19020D01*
X27000Y16287D02*
Y17801D01*
X26991Y16278D02*
X27000Y16287D01*
Y17801D02*
X27319Y18120D01*
X27515D02*
X27900Y18505D01*
X27319Y18120D02*
X27515D01*
X27779Y17448D02*
X27920Y17589D01*
X27779Y16278D02*
Y17448D01*
X27900Y18505D02*
X27955Y18560D01*
X28641D02*
X28915Y18834D01*
X24779Y18670D02*
X24929D01*
X27068Y21896D02*
X27370Y21593D01*
X26403Y21896D02*
X27068D01*
X25720Y18920D02*
X25895Y19095D01*
X26350Y21843D02*
X26403Y21896D01*
X26350Y21840D02*
Y21843D01*
X26178Y21668D02*
X26350Y21840D01*
X26116Y22016D02*
X27085D01*
X25971Y20400D02*
X26471Y20900D01*
X26002Y21668D02*
X26178D01*
X25696Y21974D02*
X26002Y21668D01*
X32040Y22019D02*
Y22520D01*
X32162Y21971D02*
Y22472D01*
X27818Y22430D02*
X28471Y23083D01*
X27059Y22250D02*
X28085Y23275D01*
X30510Y21319D02*
Y21601D01*
Y21319D02*
X30840Y20989D01*
Y20804D02*
Y20989D01*
X30390Y20499D02*
Y21651D01*
X30270Y20449D02*
Y21700D01*
X30840Y20804D02*
X31220Y20424D01*
X30000Y20351D02*
Y21659D01*
X30449Y22720D02*
X30931D01*
X29807Y23362D02*
X30449Y22720D01*
X30800Y23520D02*
X31020Y23300D01*
X31617Y25171D02*
X31948Y24840D01*
X33140Y24599D02*
Y24881D01*
Y24599D02*
X33324Y24415D01*
X33140Y24881D02*
X33324Y25065D01*
X30931Y22720D02*
X31491Y22160D01*
X30800Y23520D02*
Y23761D01*
X30191Y22790D02*
X30601Y22380D01*
X30100Y22790D02*
X30191D01*
X29668Y23222D02*
X30100Y22790D01*
X32872Y24240D02*
X33130Y23983D01*
X30999Y24118D02*
X31239D01*
X30782Y24336D02*
X30999Y24118D01*
X30270Y20449D02*
X30609Y20110D01*
X30039Y20220D02*
X30321D01*
X32771Y24000D02*
X33028Y23743D01*
X32823Y24120D02*
X33080Y23863D01*
X30503Y24058D02*
X30800Y23761D01*
X33324Y24270D02*
Y24415D01*
Y25065D02*
Y25300D01*
X32011Y22840D02*
X32237Y23066D01*
X32477Y23114D02*
X32570Y23208D01*
X32162Y22472D02*
X32477Y22787D01*
Y23114D01*
X32040Y22520D02*
X32357Y22837D01*
Y23164D02*
X32442Y23249D01*
X32357Y22837D02*
Y23164D01*
X30945Y23894D02*
X31344D01*
X32000Y20400D02*
X32400Y20800D01*
X32000Y20169D02*
Y20400D01*
X31809Y20360D02*
X32000Y20169D01*
X31364Y20360D02*
X31809D01*
X30642Y24197D02*
X30945Y23894D01*
X34160Y20929D02*
Y20941D01*
X33967Y20736D02*
X34160Y20929D01*
X34040Y20979D02*
Y20990D01*
X33917Y20856D02*
X34040Y20979D01*
X33539Y20856D02*
X33917D01*
X33920Y21028D02*
Y21040D01*
X33867Y20976D02*
X33920Y21028D01*
X33372Y20976D02*
X33867D01*
X33876Y25300D02*
X33876Y25300D01*
X28085Y23275D02*
X28125D01*
X29275Y18685D02*
Y19456D01*
X29155Y18735D02*
Y19505D01*
X29035Y18784D02*
Y19336D01*
X28915Y18834D02*
Y19286D01*
X28690Y18440D02*
X29035Y18784D01*
X28740Y18320D02*
X29155Y18735D01*
X28790Y18200D02*
X29275Y18685D01*
X29155Y19505D02*
X30000Y20351D01*
X29275Y19456D02*
X30039Y20220D01*
X24929Y18670D02*
X25023Y18576D01*
X24680Y21751D02*
Y22180D01*
X23840Y20911D02*
X24680Y21751D01*
X31360Y29413D02*
Y30054D01*
X31706Y30400D01*
X32730Y31620D02*
X32800Y31550D01*
X32926Y30150D02*
X33000D01*
X33991Y31110D02*
X34490D01*
X33841Y31260D02*
X33991Y31110D01*
X34040Y31230D02*
X34441D01*
X33890Y31380D02*
X34040Y31230D01*
X34090Y31350D02*
X34391D01*
X33940Y31500D02*
X34090Y31350D01*
X32591Y29460D02*
X32810Y29241D01*
Y28451D02*
Y29241D01*
X32491Y29340D02*
X32690Y29141D01*
Y28501D02*
Y29141D01*
X30889Y27450D02*
X31300D01*
X30224Y29357D02*
X30440Y29141D01*
X29736Y29357D02*
X30224D01*
X31199Y26647D02*
X32745Y28192D01*
X30650Y28046D02*
Y28150D01*
X29947Y27927D02*
X30609Y28590D01*
X29786Y29477D02*
X30374D01*
X30932Y29672D02*
X31348Y29255D01*
X32074D01*
X31360Y29413D02*
X31398Y29375D01*
X32024D01*
X32074Y29255D02*
X32159Y29340D01*
X32491D01*
X32024Y29375D02*
X32109Y29460D01*
X32591D01*
X29384Y27439D02*
Y27893D01*
X29250Y27306D02*
X29384Y27439D01*
X29540Y26709D02*
Y26991D01*
X29341Y26510D02*
X29540Y26709D01*
X28684Y27729D02*
Y27826D01*
X28760Y26009D02*
X28940Y25829D01*
X28979Y26510D02*
X29341D01*
X28860Y26391D02*
X28979Y26510D01*
X28860Y26309D02*
Y26391D01*
X28760Y26209D02*
X28860Y26309D01*
X28760Y26009D02*
Y26209D01*
X29250Y27281D02*
Y27306D01*
Y27281D02*
X29540Y26991D01*
X28630Y28560D02*
X28730D01*
X26950Y25500D02*
X26980D01*
X27497Y27342D02*
X27739Y27100D01*
X33100Y20639D02*
Y21000D01*
X32887Y20426D02*
X33100Y20639D01*
X32900Y21447D02*
X33372Y20976D01*
X34173Y27208D02*
X34740Y26641D01*
X30886Y17620D02*
X30928Y17578D01*
Y16278D02*
Y17578D01*
X25023Y16278D02*
Y18576D01*
X25440Y21320D02*
X25480D01*
X24680Y22180D02*
X24891Y22391D01*
X25000Y21278D02*
X25696Y21974D01*
X28206Y18037D02*
X28214D01*
X27385Y16278D02*
Y17366D01*
X30480Y16333D02*
X30535Y16278D01*
X24829Y19600D02*
X25023Y19406D01*
X26598Y16278D02*
Y17702D01*
X25810Y16278D02*
Y17760D01*
X25050Y26200D02*
X25200Y26350D01*
X23200Y27200D02*
X23370Y27370D01*
X24714Y26910D02*
X24924Y26700D01*
X25450Y21350D02*
X25480Y21320D01*
X26095Y21995D02*
X26116Y22016D01*
X27810Y19185D02*
X27900Y19095D01*
X27487Y23769D02*
X27636Y23918D01*
X27348Y23908D02*
X27497Y24058D01*
X27157Y23908D02*
X27348D01*
X27115Y23950D02*
X27157Y23908D01*
X23200Y34950D02*
X24980Y33170D01*
X26712Y34660D02*
X27141D01*
X26172Y35200D02*
X26712Y34660D01*
X24980Y33170D02*
X26920D01*
X24500Y34200D02*
X26950D01*
X27100Y29200D02*
Y29605D01*
X27800Y29320D02*
Y29724D01*
X27800Y29724D02*
X27800Y29724D01*
X22200Y34200D02*
Y34230D01*
X23665Y32068D02*
X24087Y31645D01*
X24172Y31525D02*
X24297Y31399D01*
X25095Y30750D02*
X25300D01*
X25683Y30377D02*
Y30819D01*
X25792Y30928D01*
X25683Y30377D02*
X25760Y30300D01*
X24720Y33810D02*
X26939D01*
X22200Y32200D02*
X22735Y31665D01*
X22200Y31200D02*
X22735Y30665D01*
X22665Y32085D02*
Y32341D01*
X23200Y31200D02*
X24055D01*
X23200Y30200D02*
X24055D01*
X24221Y31645D02*
X24417Y31449D01*
X24087Y31645D02*
X24221D01*
X36030Y38560D02*
Y39110D01*
Y38560D02*
X37145Y37445D01*
X33559Y40800D02*
X37025Y37334D01*
X33509Y40680D02*
X36905Y37284D01*
X32728Y20426D02*
X32887D01*
X31220Y20424D02*
X31300D01*
X33700Y36905D02*
X33760Y36845D01*
X36905Y30950D02*
Y37284D01*
X37025Y30025D02*
Y37334D01*
X28471Y28401D02*
X28630Y28560D01*
X29660Y29602D02*
Y30941D01*
X29540Y29553D02*
Y30991D01*
X28650Y30000D02*
X28800Y29850D01*
X27100Y29605D02*
X27200Y29705D01*
X31758Y29724D02*
X32500D01*
X32745Y28192D02*
X33600D01*
X32186Y31740D02*
X32440D01*
X32236Y31620D02*
X32730D01*
X32500Y29724D02*
X32926Y30150D01*
X36200Y28200D02*
X36905Y27495D01*
X33876Y26500D02*
X33956Y26580D01*
X35665Y22043D02*
Y22665D01*
X32372Y19862D02*
X32738Y20228D01*
X31917Y19862D02*
X32372D01*
X31505Y19450D02*
X31917Y19862D01*
X32926Y21174D02*
X33100Y21000D01*
X32400Y20800D02*
X32728D01*
X31300Y20424D02*
X31364Y20360D01*
X32145Y19550D02*
X32700D01*
X32728Y21174D02*
X32926D01*
X32900Y21447D02*
Y21669D01*
X32469Y22100D02*
X32900Y21669D01*
X35665Y22665D02*
X36200Y23200D01*
X31191Y34490D02*
X31611Y34070D01*
X30661Y34490D02*
X31191D01*
X30489Y35100D02*
X30751D01*
X31661Y34190D01*
X29900Y33729D02*
X30661Y34490D01*
X32041Y31595D02*
X32186Y31740D01*
X31415Y31595D02*
X32041D01*
X31363Y31648D02*
X31415Y31595D01*
X31363Y31648D02*
Y32084D01*
X31047Y32400D02*
X31363Y32084D01*
X31405Y32745D02*
X31728Y32422D01*
X30850Y32745D02*
X31405D01*
X31728Y32000D02*
Y32422D01*
X28285Y32400D02*
X28691Y31995D01*
X28285Y32400D02*
Y32833D01*
X28233Y32885D02*
X28285Y32833D01*
X27864Y32885D02*
X28233D01*
X26365Y32575D02*
X27065Y31875D01*
X28900Y32500D02*
Y32557D01*
X26939Y33810D02*
X27864Y32885D01*
X27350Y34900D02*
X27400D01*
X26900Y36100D02*
Y36724D01*
X26645Y35605D02*
X27350Y34900D01*
X21600Y24800D02*
X22200Y24200D01*
X21600Y24800D02*
Y38100D01*
X28750Y36600D02*
X28995D01*
X29300Y36905D01*
X26686Y37028D02*
X27822D01*
X28910Y35940D01*
X29943Y36905D02*
X30788Y36060D01*
X31141Y36350D02*
X31650D01*
X30329Y35740D02*
X31619Y34450D01*
X26751Y35740D02*
X30329D01*
X30586Y36905D02*
X31141Y36350D01*
X29900Y34871D02*
Y35400D01*
X30933Y37200D02*
X31229Y36905D01*
X29000Y37200D02*
X30933D01*
X26500Y29650D02*
Y30605D01*
X27495Y30000D02*
X28650D01*
X26190Y26700D02*
X26522Y26368D01*
X29384Y27893D02*
X29668Y28178D01*
X27200Y29705D02*
X27495Y30000D01*
X27200Y30295D02*
X27780D01*
X26500Y31195D02*
Y31722D01*
X26172Y32050D02*
X26500Y31722D01*
X32000Y36550D02*
X32250Y36300D01*
X32000Y36550D02*
Y36905D01*
X25950Y37763D02*
Y39722D01*
Y37763D02*
X26686Y37028D01*
X25635Y37815D02*
X26633Y36817D01*
X27750Y38200D02*
X28000D01*
X29000Y37200D01*
X31619Y34450D02*
X34450D01*
X25515Y37765D02*
Y38272D01*
X25084Y38703D02*
X25515Y38272D01*
X25084Y38703D02*
Y39722D01*
X25635Y37815D02*
Y38322D01*
X25517Y38439D02*
Y39722D01*
Y38439D02*
X25635Y38322D01*
X27762Y39238D02*
X28458D01*
X27683Y39317D02*
X27762Y39238D01*
X27683Y39317D02*
Y39722D01*
X27007Y39100D02*
X31550D01*
X26817Y39291D02*
X27007Y39100D01*
X26817Y39291D02*
Y39722D01*
X31550Y39100D02*
X31650Y39000D01*
X29900Y40680D02*
X33509D01*
X29850Y40800D02*
X33559D01*
X28458Y39238D02*
X29900Y40680D01*
X28772Y39722D02*
X29850Y40800D01*
X27698Y40698D02*
X28568D01*
X27250Y40250D02*
X27698Y40698D01*
X27250Y39722D02*
Y40250D01*
X35200Y28200D02*
X35735Y28735D01*
X28116Y39722D02*
X28772D01*
X24645Y31200D02*
X25095Y30750D01*
X26410Y28140D02*
X26550Y28000D01*
X26980Y25489D02*
Y25500D01*
X30850Y31700D02*
Y32155D01*
X29400Y31020D02*
X29760Y31380D01*
X29280Y31070D02*
X29710Y31500D01*
X30642Y27203D02*
X30889Y27450D01*
X30225Y27621D02*
X30650Y28046D01*
X30503Y27342D02*
X31100Y27939D01*
X30800Y29672D02*
X30932D01*
X30374Y29477D02*
X30660Y29191D01*
X29947Y27899D02*
Y27927D01*
X29807Y28038D02*
Y28057D01*
X27358Y27203D02*
X27611Y26950D01*
X30891Y24990D02*
X30963D01*
X31199Y24753D01*
X30613Y24501D02*
X30616Y24498D01*
X30550Y24846D02*
X30921Y24475D01*
X28172Y18003D02*
X28206Y18037D01*
X28172Y16278D02*
Y18003D01*
X30616Y24498D02*
X30618Y24500D01*
X30782Y24336D01*
X31100Y25410D02*
X31478Y25032D01*
X29540Y30991D02*
X29809Y31260D01*
X29660Y30941D02*
X29859Y31140D01*
X30000Y30276D02*
Y30800D01*
X28426Y30250D02*
X28900D01*
X30124Y30400D02*
X30800D01*
X30000Y30276D02*
X30124Y30400D01*
X30000Y30276D02*
X30000Y30276D01*
X28332Y28178D02*
X28684Y27826D01*
X33324Y28468D02*
X33600Y28192D01*
X33324Y28468D02*
Y28900D01*
X33600Y27208D02*
X34173D01*
X33276Y22356D02*
Y22900D01*
Y22356D02*
X33531Y22100D01*
X32724Y22356D02*
Y22900D01*
X32469Y22100D02*
X32724Y22356D01*
X33276Y22900D02*
Y23176D01*
X33324Y25300D02*
Y25880D01*
X33305Y25900D02*
X33324Y25880D01*
X28965Y21200D02*
X29500D01*
X32057Y21174D02*
X32728D01*
X32000Y21231D02*
X32057Y21174D01*
X31706Y29672D02*
X31758Y29724D01*
X27800D02*
X28400D01*
X25971Y19600D02*
Y20400D01*
X33672Y21174D02*
Y21959D01*
X33531Y22100D02*
X33672Y21959D01*
X30000Y29724D02*
X30747D01*
X30800Y29672D01*
X31706Y30400D02*
X31830Y30276D01*
X32500D01*
X28595Y34005D02*
Y34500D01*
X27780Y30295D02*
X27800Y30276D01*
X28400D01*
X29271Y37524D02*
Y38805D01*
X29914Y37524D02*
Y38805D01*
X30537Y37544D02*
Y38805D01*
X31200Y37524D02*
Y38805D01*
X26900Y37276D02*
X27480D01*
X27500Y37295D01*
X27505Y37300D01*
X28150D01*
X26383Y38817D02*
Y39722D01*
X30537Y39395D02*
X31200D01*
X29914D02*
X30537D01*
X29271D02*
X29914D01*
X30250Y39731D01*
Y39950D01*
X28568Y40698D02*
X29202D01*
X31200Y39395D02*
X31788Y39983D01*
X24444Y40401D02*
Y40804D01*
Y39644D02*
Y40401D01*
X23800Y39000D02*
X24444Y39644D01*
X23550Y39000D02*
X23800D01*
X27400Y19095D02*
X27900D01*
X32095Y19600D02*
X32145Y19550D01*
X33324Y26932D02*
X33600Y27208D01*
X33324Y26500D02*
Y26932D01*
X32300Y39612D02*
Y40237D01*
X32138Y39450D02*
X32300Y39612D01*
X32556D02*
Y40237D01*
Y39612D02*
X32718Y39450D01*
X23100Y19100D02*
X23100Y19100D01*
X23100Y19100D02*
Y19605D01*
X25450Y21350D02*
X25705Y21605D01*
X22200Y24200D02*
X22700Y23700D01*
X24409Y23291D02*
Y23709D01*
X21735Y26043D02*
Y26735D01*
X22200Y27200D01*
X25950Y30624D02*
X26030D01*
X26500Y31094D01*
Y31195D01*
X26164Y30928D02*
X26217Y30981D01*
X25792Y30928D02*
X26164D01*
X27589Y27482D02*
X27636D01*
X30510Y21601D02*
X30709Y21800D01*
X31230D01*
X30390Y21651D02*
X30659Y21920D01*
X31279D01*
X30270Y21700D02*
X30610Y22040D01*
X31329D01*
X30601Y22380D02*
X30770D01*
X24297Y29852D02*
X25059Y29090D01*
X24417Y29902D02*
X25109Y29210D01*
X24417Y29902D02*
Y30816D01*
X25109Y29210D02*
X25511D01*
X24297Y29852D02*
Y30399D01*
X25059Y29090D02*
X25341D01*
X24645Y30155D02*
Y30200D01*
Y30155D02*
X24950Y29850D01*
X25050Y31790D02*
X25336D01*
X25950Y31176D01*
X27250Y31500D02*
X27370Y31620D01*
X30591D01*
X30751Y31460D01*
X32076D01*
X32236Y31620D01*
X29710Y31500D02*
X30541D01*
X30731Y31310D01*
X32899D01*
X33089Y31500D01*
X33940D01*
X29760Y31380D02*
X30491D01*
X30681Y31190D01*
X32949D01*
X33139Y31380D01*
X29809Y31260D02*
X30441D01*
X30631Y31070D01*
X32999D01*
X33189Y31260D01*
X33841D01*
X29859Y31140D02*
X30392D01*
X30582Y30950D01*
X33049D01*
X33199Y31100D01*
X34200Y37150D02*
X34950Y37900D01*
X35750D01*
X33276Y23176D02*
X33490Y23390D01*
X26653Y17757D02*
X27400Y18505D01*
X27670Y33850D02*
Y34131D01*
X27141Y34660D02*
X27670Y34131D01*
X26999Y34490D02*
X27190Y34299D01*
X25890Y34490D02*
X26999D01*
X27571Y33610D02*
X27678D01*
X27190Y33991D02*
X27571Y33610D01*
X27190Y33991D02*
Y34299D01*
X27678Y33610D02*
X28405Y32882D01*
X31189Y33950D02*
X34658D01*
X31903Y37150D02*
X34200D01*
X31650Y37403D02*
Y39000D01*
X22200Y37200D02*
X22580Y36820D01*
X23200Y37200D02*
X23350D01*
X24945Y35605D01*
X22580Y36820D02*
X23560D01*
X26633Y36028D02*
Y36817D01*
Y36028D02*
X26801Y35860D01*
X26999D01*
X25515Y37765D02*
X26513Y36767D01*
Y35978D02*
Y36767D01*
Y35978D02*
X26751Y35740D01*
X24945Y35605D02*
X26645D01*
X23560Y36820D02*
X25890Y34490D01*
X26217Y30981D02*
Y31370D01*
X25942Y31645D02*
X26217Y31370D01*
X25859Y31645D02*
X25942D01*
X25806Y31698D02*
X25859Y31645D01*
X25806Y31698D02*
Y31764D01*
X25114Y32455D02*
X25806Y31764D01*
X24400Y32050D02*
X24660Y31790D01*
X25050D01*
X29529Y28317D02*
X30156Y28944D01*
X30480Y18580D02*
X30910Y19010D01*
X31150Y25460D02*
Y25480D01*
X31100Y25410D02*
X31150Y25460D01*
X27920Y17589D02*
Y17921D01*
X28156Y18157D01*
X28164D01*
X28327Y18320D01*
X27700Y17681D02*
Y17870D01*
X28107Y18277D01*
X28114D01*
X28170Y20066D02*
Y22273D01*
X28759Y22862D01*
X24330Y22830D02*
X24391Y22891D01*
X23840Y20690D02*
Y20911D01*
X25023Y19406D02*
Y19803D01*
X24610Y19390D02*
Y19539D01*
X23629Y19840D02*
X24219Y19250D01*
X24470D01*
X25023Y19803D01*
X24490Y18959D02*
X24779Y18670D01*
X24490Y18959D02*
Y19250D01*
X25471Y18830D02*
X25621Y18680D01*
X25819D01*
X25380Y18250D02*
X25389D01*
X25819Y18680D01*
X25975Y18836D01*
X25471Y18830D02*
Y19759D01*
X27810Y19185D02*
Y19917D01*
X27811Y22430D02*
X27818D01*
X27570Y22189D02*
X27811Y22430D01*
X27570Y20157D02*
Y22189D01*
Y20157D02*
X27810Y19917D01*
X27370Y20188D02*
X27550Y20008D01*
X27370Y20188D02*
Y21593D01*
X27085Y22016D02*
X28292Y23222D01*
X26190Y22250D02*
X27059D01*
X25742Y22441D02*
X26994D01*
X28053Y23501D01*
X25849Y23002D02*
Y23009D01*
Y23002D02*
X26171Y22680D01*
X26954D01*
X34735Y23665D02*
X35200Y23200D01*
X34735Y25043D02*
Y25889D01*
X34615Y26009D02*
X34735Y25889D01*
X34560Y27084D02*
Y27750D01*
X31478Y26368D02*
X31627Y26517D01*
X32283D01*
X33245Y25840D02*
X33305Y25900D01*
X32421Y25840D02*
X33245D01*
X32450Y26150D02*
Y26350D01*
X32283Y26517D02*
X32450Y26350D01*
X31617Y26229D02*
X32032D01*
X32421Y25840D01*
X31239Y24118D02*
X31361Y24240D01*
X32872D01*
X31021Y22960D02*
X31650D01*
X30680Y23301D02*
X31021Y22960D01*
X30680Y23301D02*
Y23602D01*
X30364Y23918D02*
X30680Y23602D01*
X30560Y23251D02*
Y23444D01*
Y23251D02*
X30971Y22840D01*
X32011D01*
X30225Y23779D02*
X30560Y23444D01*
X31948Y24840D02*
X31949D01*
X32089Y24700D02*
X32770D01*
X31617Y25171D02*
X31618D01*
X31949Y24840D01*
X32089Y24700D01*
X30690Y25541D02*
Y25549D01*
Y25541D02*
X31338Y24893D01*
X27690Y20207D02*
Y21970D01*
X27810Y22090D01*
X28170Y20066D02*
X28631Y19605D01*
X28765D01*
X29035Y19336D01*
X28549Y18780D02*
X28690Y18921D01*
X28351Y18780D02*
X28549D01*
X28295Y18836D02*
X28351Y18780D01*
X25975Y18836D02*
X28295D01*
X27930Y19879D02*
X28690Y19119D01*
Y18921D02*
Y19119D01*
X27930Y19879D02*
Y19967D01*
X27690Y20207D02*
X27930Y19967D01*
X28790Y29840D02*
X28800Y29850D01*
X28970Y27676D02*
Y28659D01*
X28790Y28839D02*
Y29840D01*
Y28839D02*
X28970Y28659D01*
X28444Y27630D02*
Y27787D01*
Y27630D02*
X28584Y27489D01*
X28783D02*
X28970Y27676D01*
X28193Y28038D02*
X28444Y27787D01*
X28584Y27489D02*
X28783D01*
X29090Y27626D02*
Y29261D01*
X27739Y27100D02*
X28564D01*
X29090Y27626D01*
X27611Y26950D02*
X27641Y26980D01*
X28613D01*
X29210Y27577D01*
Y29211D01*
X29400Y29401D01*
Y31020D01*
X29090Y29261D02*
X29280Y29451D01*
Y31070D01*
X29540Y29553D02*
X29736Y29357D01*
X29660Y29602D02*
X29786Y29477D01*
X30609Y28590D02*
Y28609D01*
X30950Y28950D01*
X31589Y27939D02*
X32000Y28350D01*
X31100Y27939D02*
X31589D01*
X31206Y27210D02*
X31399D01*
X30921Y26925D02*
X31206Y27210D01*
X31060Y26786D02*
X31086D01*
X31391Y27090D02*
X31449D01*
X31086Y26786D02*
X31391Y27090D01*
X31338Y26507D02*
X32039Y27208D01*
X33600D01*
X31311Y24360D02*
Y24363D01*
Y24360D02*
X31610D01*
X31060Y24614D02*
X31311Y24363D01*
X31610Y24360D02*
X31850Y24600D01*
X22018Y21760D02*
X22199D01*
X23160Y20799D01*
Y20648D02*
Y20799D01*
X25000Y21141D02*
Y21278D01*
X22958Y25820D02*
X23459D01*
X22690Y26088D02*
X22958Y25820D01*
X22690Y26088D02*
Y28530D01*
X22700Y25700D02*
X23509D01*
X23459Y25820D02*
X24209Y26570D01*
X24591D01*
X24055Y29835D02*
Y30200D01*
Y29835D02*
X25170Y28720D01*
X27396Y23400D02*
X27775Y23779D01*
X26954Y22680D02*
X27914Y23640D01*
X27300Y23400D02*
X27396D01*
X26450Y23100D02*
X27119Y23769D01*
X26150Y23100D02*
X26450D01*
X31449Y27090D02*
X32810Y28451D01*
X31399Y27210D02*
X32690Y28501D01*
D37*
X22800Y40300D02*
D03*
X35300D02*
D03*
Y19300D02*
D03*
D38*
X36200Y37200D02*
D03*
X35200D02*
D03*
X22200D02*
D03*
X23200D02*
D03*
D39*
X36200Y36200D02*
D03*
Y35200D02*
D03*
Y34200D02*
D03*
Y33200D02*
D03*
Y32200D02*
D03*
Y31200D02*
D03*
Y30200D02*
D03*
Y29200D02*
D03*
Y27200D02*
D03*
Y26200D02*
D03*
Y25200D02*
D03*
Y24200D02*
D03*
Y23200D02*
D03*
Y22200D02*
D03*
X35200D02*
D03*
Y23200D02*
D03*
Y24200D02*
D03*
Y25200D02*
D03*
Y26200D02*
D03*
Y27200D02*
D03*
Y29200D02*
D03*
Y30200D02*
D03*
Y31200D02*
D03*
Y32200D02*
D03*
Y33200D02*
D03*
Y34200D02*
D03*
Y35200D02*
D03*
Y36200D02*
D03*
X22200D02*
D03*
Y35200D02*
D03*
Y34200D02*
D03*
Y33200D02*
D03*
Y32200D02*
D03*
Y31200D02*
D03*
Y30200D02*
D03*
Y29200D02*
D03*
Y27200D02*
D03*
Y26200D02*
D03*
Y25200D02*
D03*
Y24200D02*
D03*
Y23200D02*
D03*
Y22200D02*
D03*
X23200D02*
D03*
Y23200D02*
D03*
Y24200D02*
D03*
Y25200D02*
D03*
Y26200D02*
D03*
Y27200D02*
D03*
Y29200D02*
D03*
Y30200D02*
D03*
Y31200D02*
D03*
Y32200D02*
D03*
Y33200D02*
D03*
Y34200D02*
D03*
Y35200D02*
D03*
Y36200D02*
D03*
D40*
X36200Y28200D02*
D03*
X35200D02*
D03*
X22200D02*
D03*
X23200D02*
D03*
D41*
X29500Y21200D02*
D03*
X25100Y38100D02*
D03*
Y36500D02*
D03*
D42*
X30991Y41300D02*
D03*
X33609D02*
D03*
X31316Y40237D02*
D03*
X33284D02*
D03*
D43*
X29900Y32500D02*
D03*
X28900D02*
D03*
D44*
X27900D02*
D03*
D45*
X33750Y36330D02*
D03*
X33910Y19760D02*
D03*
X26861Y27519D02*
D03*
X21850Y39290D02*
D03*
X30950Y18970D02*
D03*
X30800Y19770D02*
D03*
Y20570D02*
D03*
X28493Y22116D02*
D03*
X29920Y22220D02*
D03*
X27930Y20600D02*
D03*
X27550Y19690D02*
D03*
X26850Y19600D02*
D03*
X32790Y18540D02*
D03*
X23180Y21510D02*
D03*
X34400Y35560D02*
D03*
X34390Y23320D02*
D03*
X34270Y25300D02*
D03*
X32570Y23660D02*
D03*
X33490Y23340D02*
D03*
X34040Y24110D02*
D03*
X34570Y24720D02*
D03*
X25200Y28750D02*
D03*
X26150Y29300D02*
D03*
X24040Y28650D02*
D03*
X24290Y27990D02*
D03*
X34240Y31700D02*
D03*
X34320Y26580D02*
D03*
X31890Y23200D02*
D03*
X31700Y22160D02*
D03*
X31530Y21222D02*
D03*
X23840Y20690D02*
D03*
X22100Y19840D02*
D03*
X24770Y24600D02*
D03*
X24500Y25400D02*
D03*
X25450Y23790D02*
D03*
X24400Y26110D02*
D03*
Y26910D02*
D03*
X24950Y27500D02*
D03*
X25450Y27800D02*
D03*
X25750Y25430D02*
D03*
X25950Y26350D02*
D03*
X26610Y24010D02*
D03*
X26500Y27950D02*
D03*
X26320Y18380D02*
D03*
X29000Y22910D02*
D03*
X28360Y24090D02*
D03*
X29401Y24501D02*
D03*
X28350Y24650D02*
D03*
X28600Y25450D02*
D03*
X27880Y25880D02*
D03*
X30550Y24850D02*
D03*
X28450Y19020D02*
D03*
X27460Y17780D02*
D03*
X26660Y17750D02*
D03*
X24920Y19010D02*
D03*
X25720Y18920D02*
D03*
X26130Y21170D02*
D03*
X24760Y21240D02*
D03*
X24070Y22050D02*
D03*
X24270Y19680D02*
D03*
X22370Y21250D02*
D03*
X22920Y20650D02*
D03*
X27810Y22090D02*
D03*
X30850Y21460D02*
D03*
X31020Y23300D02*
D03*
X31460Y24000D02*
D03*
X31850Y24600D02*
D03*
X32770Y24700D02*
D03*
X33480Y24740D02*
D03*
X30450Y25450D02*
D03*
X29750Y24950D02*
D03*
X32850Y25500D02*
D03*
X30180Y19880D02*
D03*
X32450Y26150D02*
D03*
X31800Y20700D02*
D03*
X34450Y20550D02*
D03*
X34400Y22600D02*
D03*
X34058Y22100D02*
D03*
X29900Y26600D02*
D03*
X33369Y29387D02*
D03*
X33700Y30200D02*
D03*
X32800Y31550D02*
D03*
X34340Y28650D02*
D03*
X34240Y27690D02*
D03*
X33000Y30150D02*
D03*
X32350Y29000D02*
D03*
X32000Y28350D02*
D03*
X31406Y28394D02*
D03*
X31300Y27450D02*
D03*
X30950Y28950D02*
D03*
X30100Y29000D02*
D03*
X30650Y28150D02*
D03*
X29850Y25900D02*
D03*
X29724Y27322D02*
D03*
X29200Y26850D02*
D03*
X28320Y26420D02*
D03*
X28684Y27729D02*
D03*
X29150Y26100D02*
D03*
X28730Y28560D02*
D03*
X27300Y26150D02*
D03*
X26950Y25500D02*
D03*
X29400Y20250D02*
D03*
X31750Y18810D02*
D03*
X33109Y19933D02*
D03*
X31620Y18130D02*
D03*
X32230Y17590D02*
D03*
X30940Y17960D02*
D03*
X25440Y21320D02*
D03*
X25810Y17760D02*
D03*
X27970Y36050D02*
D03*
X26920Y33170D02*
D03*
X26950Y34200D02*
D03*
X25050Y31790D02*
D03*
X27100Y29200D02*
D03*
X27800Y29320D02*
D03*
X25300Y30750D02*
D03*
X33750Y39110D02*
D03*
X36030D02*
D03*
X32656Y27606D02*
D03*
X33200Y36750D02*
D03*
X29030Y29540D02*
D03*
X28430Y29170D02*
D03*
X27400Y34900D02*
D03*
X26900Y36100D02*
D03*
X24150Y38800D02*
D03*
X28750Y36600D02*
D03*
X31650Y36350D02*
D03*
X30489Y35100D02*
D03*
X29900Y35400D02*
D03*
X27250Y31500D02*
D03*
X32250Y36300D02*
D03*
X27750Y38200D02*
D03*
X34450Y34450D02*
D03*
X35750Y37900D02*
D03*
X30850Y31700D02*
D03*
X31050Y34150D02*
D03*
X30000Y30800D02*
D03*
X28900Y30250D02*
D03*
X28595Y34005D02*
D03*
X28150Y37300D02*
D03*
X26383Y38817D02*
D03*
X30250Y39950D02*
D03*
X29202Y40698D02*
D03*
X23550Y39000D02*
D03*
X32700Y19550D02*
D03*
X32138Y39450D02*
D03*
X32718D02*
D03*
X23100Y19100D02*
D03*
X30770Y22380D02*
D03*
X24140Y30730D02*
D03*
X24950Y29850D02*
D03*
X28550Y17870D02*
D03*
X27670Y33850D02*
D03*
X30030Y18680D02*
D03*
X31150Y25480D02*
D03*
X29320Y21840D02*
D03*
X27300Y23400D02*
D03*
X26150Y23100D02*
D03*
D46*
X33690Y30760D02*
D03*
M02*
